Dtrackr - Consort statement example • dtrackr
…
With a bit of experimentation the flowchart needed for a STROBE/CONSORT checklist can be generated. One option to output the flowchart is SVG which can then be manually formatted as required.

ilpd %>% flowchart()

<?xml version="1.0" encoding="UTF-8" standalone="no"?>

Excluded data

During this pipeline, we may be keen to understand why certain data items are being rejected. This would enable us to examine the source data, and potentially correct it during the data collection process. We’ve used it to allow continuous quality checks on the data to feed back to the data curators, as we regularly conduct analyses. By tracking the exclusions, not only do we track the data flow through the pipeline we also retain all excluded items, with the reason for exclusion. Thus we can reassure ourselves that the exclusions are as expected. We enabled this by calling capture_exclusions() in the pipeline above. Having tracked the exclusions we can retrieve them by calling excluded() which gives a data frame with the excluded records and the reasons. If the exclusions happened over multiple stages as the dataframe format change in between then this will be held as a nested dataframe (i.e. see ?tidyr::nest):

# here we filter out the majority of the actual content of the excluded data to focus on the 
# metadata recovered during the exclusion.
ilpd %>% excluded() %>% select(.stage,.message,.filter,Age, Gender)
#> # A tibble: 22 × 5
#>    .stage  .message             .filter  Age   Gender
#>    <chr>   <glue>               <chr>    <chr> <chr> 
#>  1 stage 1 7 subjects under 18  Age < 18 17    Male  
#>  2 stage 1 7 subjects under 18  Age < 18 17    Female
#>  3 stage 1 7 subjects under 18  Age < 18 4     Male  
#>  4 stage 1 7 subjects under 18  Age < 18 4     Male  
#>  5 stage 1 7 subjects under 18  Age < 18 14    Male  
#>  6 stage 1 7 subjects under 18  Age < 18 12    Male  
#>  7 stage 1 7 subjects under 18  Age < 18 17    Male  
#>  8 stage 1 12 subjects under 18 Age < 18 14    Male  
#>  9 stage 1 12 subjects under 18 Age < 18 17    Male  
#> 10 stage 1 12 subjects under 18 Age < 18 15    Male  
#> # … with 12 more rows
…
