dtrackr - Basic operations • dtrackr
…
tmp %>% flowchart()

<?xml version="1.0" encoding="UTF-8" standalone="no"?>Give the previous data pipeline we can identify the items that were
excluded, the stage of the pipeline at which they were excluded and
details of the code that resulted in them being excluded.

tmp %>% excluded()
#> # A tibble: 40 × 9
#>    .stage     .strata .message Sepal.Length Sepal.Width Petal.Length Petal.Width
#>    <chr>      <chr>   <glue>   <chr>        <chr>       <chr>        <chr>      
#>  1 petal len… ""      13 long… 6.3          3.3         6            2.5        
#>  2 petal len… ""      13 long… 7.1          3           5.9          2.1        
#>  3 petal len… ""      13 long… 7.6          3           6.6          2.1        
#>  4 petal len… ""      13 long… 7.3          2.9         6.3          1.8        
#>  5 petal len… ""      13 long… 7.2          3.6         6.1          2.5        
#>  6 petal len… ""      13 long… 7.7          3.8         6.7          2.2        
#>  7 petal len… ""      13 long… 7.7          2.6         6.9          2.3        
#>  8 petal len… ""      13 long… 7.7          2.8         6.7          2          
#>  9 petal len… ""      13 long… 7.2          3.2         6            1.8        
#> 10 petal len… ""      13 long… 7.4          2.8         6.1          1.9        
#> # ℹ 30 more rows
#> # ℹ 2 more variables: Species <chr>, .filter <chr>
…
